,City,Latitude,Longitude,Price,Size
0,Berlin,52.506494,13.285641,"€899,000 EUR","2,735 sq. ft. - 254.11 m2"
1,Berlin,52.502706,13.401651,"€759,000 EUR","1,252 sq. ft. - 116.3 m2"
2,Berlin,52.506912,13.365051,"€790,000 EUR","1,830 sq. ft. - 170 m2"
3,Berlin,52.559305,13.476149,"€702,000 EUR","1,532 sq. ft. - 142.35 m2"
4,Berlin,52.502706,13.401651,"€699,000 EUR","1,199 sq. ft. - 111.35 m2"
5,Berlin,52.545511,13.407294,"€650,000 EUR","1,076 sq. ft. - 100 m2"
6,Berlin,52.531671,13.338553,"€708,420 EUR","1,144 sq. ft. - 106.26 m2"
7,Berlin,52.492213,13.30375,"€650,000 EUR","1,163 sq. ft. - 108 m2"
8,Berlin,52.495024,13.314779,"€609,000 EUR","1,507 sq. ft. - 140 m2"
9,Berlin,52.531671,13.338553,"€613,430 EUR",981 sq. ft. - 91.17 m2
10,Berlin,52.559305,13.476149,"€580,000 EUR","1,776 sq. ft. - 164.95 m2"
11,Berlin,52.532614,13.377704,"€475,000 EUR",740 sq. ft. - 68.73 m2
12,Berlin,,,"€450,000 EUR","1,246 sq. ft. - 115.8 m2"
13,Berlin,52.531671,13.338553,"€456,000 EUR",797 sq. ft. - 74 m2
14,Berlin,52.495024,13.314779,"€423,307 EUR",962 sq. ft. - 89.39 m2
15,Berlin,52.485377,13.398904,"€365,200 EUR",710 sq. ft. - 66 m2
16,Berlin,52.551727,13.412301,"€358,000 EUR",807 sq. ft. - 75 m2
17,Berlin,52.501933,13.455447,"€305,000 EUR",689 sq. ft. - 64 m2
18,Berlin,52.506494,13.285641,"€305,000 EUR",646 sq. ft. - 60 m2
19,Berlin,52.460908,13.481547,"€292,950 EUR",819 sq. ft. - 76.09 m2
20,Berlin,52.463176,13.320402,"€240,000 EUR",743 sq. ft. - 69 m2
21,Berlin,52.501836,13.302669,"€218,000 EUR",560 sq. ft. - 52 m2
22,Berlin,52.501933,13.455447,"€170,000 EUR",457 sq. ft. - 42.5 m2
23,Berlin,52.460908,13.481547,"€156,230 EUR",437 sq. ft. - 40.58 m2
24,Berlin,52.528204,13.321385,"€151,000 EUR",441 sq. ft. - 41 m2
25,Berlin,52.559166,13.383043,"€150,000 EUR",447 sq. ft. - 41.5 m2
26,Berlin,52.541117,13.35093,"€151,000 EUR",634 sq. ft. - 58.92 m2
27,Berlin,52.523172,13.365317,"€136,780 EUR",241 sq. ft. - 22.35 m2
